Order 1:  0 1 2 3 4 5 6 7 8 9 10 11 12 13 14
Order 2:  1 0 14 13 12 11 10 9 8 7 6 5 4 3 2
Order 3:  3 4 5 6 7 8 9 10 11 12 13 14 0 1 2
Order 4:  4 3 2 1 0 14 13 12 11 10 9 8 7 6 5
Order 5:  6 7 8 9 10 11 12 13 14 0 1 2 3 4 5
Order 6:  7 6 5 4 3 2 1 0 14 13 12 11 10 9 8
Order 7:  7 8 6 9 5 10 4 11 3 12 2 13 1 14 0
Order 8:  9 10 11 12 13 14 0 1 2 3 4 5 6 7 8
Order 9:  10 9 8 7 6 5 4 3 2 1 0 14 13 12 11
Order 10: 12 13 14 0 1 2 3 4 5 6 7 8 9 10 11
Order 11: 13 12 11 10 9 8 7 6 5 4 3 2 1 0 14
Order 12: 14 0 13 1 12 2 11 3 10 4 9 5 8 6 7
Order 13: 14 13 12 11 10 9 8 7 6 5 4 3 2 1 0
